{
"0": "Son", 
"1": "Gameplay", 
"2": "Apparence et graphismes", 
"3": "Contrôles", 
"4": "Autres", 
"5": "General:%d", 
"6": "Bruitages:%d", 
"7": "Résolution", 
"8": "Plein-écran", 
"9": "FPS illimité", 
"10": "Montrer le compteur de FPS", 
"12": "Demarrer l'assistant de décalage audio", 
"13": "Décalage d'entrée:%+d", 
"14": "Décalage visuel:%+d", 
"15": "Largeur des colonnes en mode mania:", 
"16": "La Largueur des Colonnes ont été Réinitialisées", 
"17": "La Largueur du Panneau a été Réinistialisée", 
"18": "Position du disque en mode mania (8k)", 
"19": "Désactiver le Storyboard", 
"20": "Cacher le clavier visuel", 
"21": "Utiliser clavier de pleine largeur", 
"22": "Réinitialiser la configuration des touches", 
"23": "Recharger toutes les maps", 
"24": "Visiter le site web", 
"25": "Langue", 
"26": "Volume du Système:%d", 
"27": "Position des colonnes en mode mania:%d%%", 
"28": "Chercher pour des mises à jour", 
"29": "Utiliser les colonnes 3D", 
"30": "Angle de 3D:%d", 
"31": "Activer le clavier externe", 
"32": "Mode HD", 
"33": "Montrer la barre de précision", 
"34": "Utiliser un son lors d'un click", 
"35": "Utiliser un son customisé", 
"36": "Se déconnecter", 
"37": "Skin Actuel", 
"38": "Utiliser le mode portrait par défault", 
"39": "Activer le mode écran tactile", 
"40": "Quitter", 
"41": "Cacher les lignes de colonnes", 
"42": "Performance audio:%d", 
"43": "Aide", 
"44": "Experimental", 
"45": "Utiliser un moteur de son amélioré", 
"46": "Reporter un bug/problème", 
"47": "Aperçu", 
"48": "Réseau", 
"49": "Serveur", 
"50": "Volume de la musique", 
"51": "Bruitages", 
"52": "Décalage d'entré", 
"53": "Décalage visuel", 
"54": "Angle de colonne 3D", 
"55": "Dossier de maps:", 
"56": "Faire pivoter l'aire de jeu", 
"57": "Utiliser l'ASIO", 
"58": "Afficher le titre dans la langue d'origine", 
"59": "Désactiver le scrolling du éditeur dans le mode mania", 
"60": "Version", 
"61": "Plateforme", 
"62": "Map en mode grille", 
"63": "Utiliser OpenSL", 
"64": "Gérer le skin", 
"65": "Roulette de souris inversé", 
"66": "Utiliser les Bruitages à la fin", 
"67": "Sélectionnez pour changez les touches", 
"68": "Configurez la touche pour", 
"69": "Mémoriser l'hôte du serveur", 
"70": "Garder le même FPS durant le jeu", 
"71": "Fréquence de rafraîchissement", 
"72": "Effet graphique", 
"73": "Taille de scène", 
"74": "Compensation de mouvement 3D", 
"75": "Compensation d'épaisseur 3D", 
"76": "Position de l'illustration", 
"77": "Passer l'apercu du son des touches", 
"78": "Hold Adjustment",
"79": "Stop On Hit",
"80": "Stop On Judge",
"81": "Snap to Judge",
"82": "Hit Distance",
"83": "Backup",
"100": "Supprimer la musique", 
"101": "Ouvrir le dossier de la map", 
"102": "Supprimer la map", 
"103": "Supprimer le score local", 
"104": "Voir dans le magasin", 
"105": "Map Instable", 
"106": "Selectionner une modification de jeu", 
"107": "Mode par defaut", 
"108": "Rechercher", 
"109": "Modifier cette map", 
"110": "Créer une nouvelle map", 
"111": "Avoir plus de maps", 
"112": "Créer une nouvelle map", 
"113": "Retour", 
"114": "Classement", 
"115": "Options", 
"116": "Local", 
"117": "Progression", 
"118": "Fini", 
"119": "Pause", 
"120": "Accepter", 
"121": "Juge", 
"122": "Afficher toutes les maps", 
"123": "Visiter sur le site web", 
"124": "Indisponible", 
"125": "Inconnu", 
"126": "Copier et éditer", 
"127": "CLASSEMENT LOCAL", 
"128": "CLASSEMENT EN LIGNE", 
"129": "MEILLEUR SCORE", 
"130": "Vitesse de défilement", 
"131": "Téléchargements", 
"132": "Recherche", 
"133": "Comment importer des maps", 
"134": "Conversion de l'audio en format OGG", 
"135": "Êtes-vous sûr de supprimer cette map ?", 
"136": "Êtes-vous sûr de supprimer cette musique ?", 
"137": "Importer des maps", 
"138": "Téléchargement Réussi", 
"139": "Partager la map à ...", 
"140": "Créer une nouvelle collection de maps", 
"141": "Êtes-vous sûr de supprimer cette collection ?", 
"142": "Ajoutée", 
"143": "Supprimée", 
"144": "Toutes les maps", 
"145": "Rechercher", 
"146": "Liste De Messages", 
"147": "Aucun Message", 
"148": "Musique inclut", 
"149": "Map inclut", 
"150": "Supprimer", 
"151": "Partager", 
"170": "Liste d'Amis", 
"171": "Rechercher Joueur", 
"172": "Envoyer", 
"173": "Inviter à la Room", 
"174": "Fichier Audio pour nouvelle map", 
"175": "Importer le skin", 
"176": "Commentaires", 
"177": "Position Globale", 
"178": "Musiques", 
"179": "Regarder le Replay", 
"180": "Hebdomadaire", 
"181": "Rendre muet", 
"182": "Partager en tant que collection de musiques", 
"183": "Partager en tant que collection de maps", 
"200": "Regarder Marlo réaliser un score parfait", 
"201": "Jouer avec des notes aléatoires.", 
"202": "Jouer avec des notes inversées en mirroir", 
"203": "Ignorer le changement de vitesse de défilement", 
"204": "Tout va plus vite ! (20%)", 
"205": "Ugguuuuu. (50%)", 
"206": "Jouer avec des notes qui disparaissent", 
"207": "Jouer avec le jugement original", 
"208": "Pitié... (-20%)", 
"209": "Ne vous faites pas tuer", 
"210": "Utiliser le même juge pour le match", 
"211": "Jouer avec notes inversées", 
"250": "DIFFICULTÉE", 
"251": "PARTICULIÉ", 
"252": "AIDE", 
"253": "RÉINSTALLER", 
"254": "BOOST DE SCORE", 
"255": "Ce mod n'est pas permis", 
"300": "Configurer les touches", 
"301": "Appuyer sur échap pour réinitialiser", 
"302": "Utiliser ce décalage: %d", 
"303": "Etes-vous sûr ?", 
"304": "Quitter vers la position actuelle", 
"305": "Score", 
"306": "Combo", 
"307": "Précision", 
"308": "Décalage de la map", 
"309": "Opacité du fond d'écran", 
"310": "Terminer", 
"311": "Watch Player",
"312": "Start Live Streaming",
"313": "The Host is offline",
"400": "Appuyer pour se connecter", 
"401": "Connection", 
"402": "Profil", 
"403": "Nouveau compte", 
"404": "Pseudo", 
"405": "Mot de passe", 
"406": "Mot de passe oublié ?", 
"500": "Veuillez ajouter une musique dans le dossier <beatmap>, puis appuiez sur F5 pour la charger", 
"501": "Veuillez ajouter une musique dans le dossier <sdcard/data/malody/beatmap>, puis appuyez pour la charger", 
"502": "Veuillez glisser un fichier vers iTunes, puis appuyer pour le charger", 
"503": "Glisser des musiques (en fichiers .zip ou .osz) vers Malody, puis cliquez pour les charger", 
"504": "Veuillez zipper vos skins en msz, puis ajoutez les dans votre dossier de skins pour le charger", 
"505": "Ajouter un fichier \"custom.wav\" dans le dossier de votre skin <skin>", 
"506": "Calibrer le décalage audio", 
"507": "Appuyez sur la touche F ou sur l'ecran lorsque la note traverse le trait rouge.", 
"600": "Tout", 
"601": "Titre", 
"602": "Longueur", 
"603": "BPM", 
"604": "Temps D'importation", 
"605": "Stable", 
"606": "Beta", 
"607": "Alpha", 
"608": "Map Hors Ligne", 
"609": "Mise à jour", 
"650": "Ascendant", 
"651": "Descendant", 
"700": "Support", 
"701": "Soutenez le Créateur de la map avec 50 gold si vous avez aimé cette map.", 
"702": "Nouveau highscore: #%d", 
"703": "Meilleur score en-ligne: %d (+%d)", 
"704": "Votre don a été effectué", 
"705": "RÉESAYER", 
"706": "Soumission...", 
"707": "Map instable", 
"708": "Échec de la soumission", 
"709": "Recommendé", 
"710": "Non\nRecommendé", 
"711": "Écrire un\nCommentaire", 
"712": "Recommender cette map à d'autres joueurs.", 
"713": "Cette map nécessite des modifications.", 
"714": "Laisser un commentaire à propos de cette map sur le site en ligne", 
"715": "Commenter", 
"716": "Exporter vers:", 
"717": "Nouvelle Position Globale:", 
"718": "REPLAY", 
"719": "POSITION GLOBALE", 
"720": "Faire un don de 50 gold", 
"721": "Faire un don de 500 gold", 
"722": "Annuler la recommandation", 
"723": "Annuler le \"ne pas recommandé\"", 
"724": "QUITTER", 
"725": "CONTINUER", 
"726": "CLASSEMENT DU MATCH", 
"727": "Score présenté", 
"800": "Veuillez vous connecter pour utiliser les fonctionnalités en ligne.", 
"801": "Veuillez utiliser l'anglais, ceci est une room publique.", 
"802": "Ajouter en tant qu'ami(e)", 
"803": "Ami(e)", 
"804": "Ami(e) mutuel", 
"805": "Accomplissements", 
"806": "Puzzles", 
"807": "Se déconnecter", 
"808": "Chaînes", 
"809": "Créer une room", 
"810": "LISTE DE ROOM", 
"811": "Nom de la room", 
"812": "Joueurs", 
"813": "En attente", 
"814": "En cours de partie", 
"815": "Montrer les rooms en attente", 
"816": "Prêt", 
"817": "Annuler le \"prêt\"", 
"818": "Commencer", 
"819": "Supprimer le joueur", 
"820": "Tranferer d'hôte", 
"821": "Mode de score", 
"822": "Gagner par le score le plus élevé", 
"823": "Gagner par le plus grand combo", 
"824": "Gagner par la précision la plus élevée", 
"825": "Cacher les notes", 
"826": "Mettre en sourdine", 
"827": "Mode en équipe", 
"828": "Solo", 
"829": "Deux équipe", 
"830": "Modes", 
"831": "Dernière fois joué", 
"832": "Il y a %d jours", 
"833": "Il y a %d heures", 
"834": "Il y a %d minutes", 
"835": "Temps Ajouté", 
"836": "La dernière fois joué", 
"837": "Aucune Map Sélectionnée", 
"838": "REJOINDRE", 
"839": "Sur une série de %d victoires !", 
"840": "Il y a %d ans", 
"841": "Montrer toutes les maps", 
"842": "Afficher les commentaires sur la map", 
"843": "Room privée", 
"844": "Veuillez entrer le mot de passe de la room", 
"845": "Joué", 
"846": "Maps joué", 
"847": "Meilleur classements", 
"848": "Maps", 
"849": "Accomplissements", 
"850": "Puzzles", 
"851": "Profile", 
"852": "Gold", 
"853": "Note", 
"854": "Editer le profil", 
"855": "Sélectionner ou créer une room", 
"856": "Room publique", 
"857": "Genre", 
"858": "Date de Naissance", 
"859": "Pays", 
"860": "Contenu du Profile", 
"861": "Homme", 
"862": "Femme", 
"863": "Selectionner ou créer une room", 
"864": "Selectionner une musique", 
"865": "Selectionner une map", 
"866": "10-Player Room",
"867": "Dan Records",
"900": "Se connecter", 
"901": "Jouer hors-ligne", 
"902": "Calibration du decalage", 
"903": "Appuyer sur \"Start\" pour jouer le rhythme", 
"904": "Appuyez sur F our sur l'écran avec le rhythme progressivement pour avoir un résultat stable.", 
"905": "Commencer", 
"906": "Réinitialiser", 
"907": "Montrer les notes", 
"908": "Jouer un son", 
"909": "Appuyez sur F au long du rythme progressivement pour avoir un résultat stable", 
"910": "PARAMÈTRES", 
"911": "CHAT ROOM", 
"912": "RÉSEAU", 
"913": "MODE", 
"914": "LOBBY", 
"915": "ROOM", 
"916": "PROFIL", 
"917": "RÉSULTAT", 
"918": "SKIN", 
"919": "MAGASIN", 
"920": "QUÊTES", 
"921": "MAP", 
"922": "MUSIQUE", 
"923": "ACTUALITÉS", 
"924": "SOUMISSION", 
"925": "COLLECTION", 
"926": "ÉDITEUR DE FICHIERS", 
"927": "MAGASIN D'ITEMS",
"1000": "Veuillez vous connectez", 
"1001": "Veuillez attendre", 
"1002": "Appuyez sur F ou sur l'ecran progressivement avec le son du rhythme.", 
"1003": "Vous avez eu un score décevant à cause d'un décalage.", 
"1004": "Voulez vous que le système calibre votre décalage automatiquement ?", 
"1005": "Vous n'avez pas cette map", 
"1006": "Calibration dynamique", 
"1007": "Ajuster le décalage audio en jouant. Le score ne sera pas soumis si cette option est activée", 
"1008": "Ce nouveau moteur de son est propice à une meilleure experience de jeu", 
"1009": "Maldoy est à-jour. Cliquez ici pour voir ce qu'il y a de nouveau.", 
"1010": "Ceci est le Malody Store ! Voici les dernière 80 maps soumisent par la communauté à travers le monde. Pour en avoir plus ou pour soumettre votre propre map, visitez m.mugzone.net", 
"1011": "Double-cliquer pour jouer cette map", 
"1012": "Timeout", 
"1013": "Il est recommandé d'utiliser la calibration de décalage avant de commencer à jouer. Voulez vous l'utiliser ?", 
"1014": "Par Defaut", 
"1015": "Appuyez sur la barre d'espace pour finir", 
"1016": "Appuyez pour finir", 
"1017": "Visiteur", 
"1018": "Êtes-vous sûr ?", 
"1019": "Erreur de serveur", 
"1020": "OK", 
"1021": "Annuler", 
"1022": "Appliquer au décalage (recommandé)", 
"1023": "Appliquer au décalage de cette map uniquement", 
"1024": "Malody ne peut pas charger cette musique.", 
"1025": "Essayer de la recharger", 
"1026": "Supprimer cette musique", 
"1027": "Créer une map à partir de cette musique ?", 
"1028": "Utiliser cette image en tant qu'arrière-plan ?", 
"1029": "Cette chanson n'a pas encore de map.", 
"1030": "Regarder le replay ?", 
"1031": "Que voulez vous faire ?", 
"1032": "Succès de l'importation du skin.", 
"1033": "Échec de l'importation du skin.", 
"1034": "Êtes-vous sûr ?", 
"1035": "Sélectionnez le mode de la map", 
"1036": "Vous allez supprimer toutes les notes de cette colonne. Voulez-vous continuer ?", 
"1037": "L'éditeur de maps ne fonctionne pas correctement avec des maps qui n'utilisent pas le format des fichiers Malody.", 
"1038": "Afficher toutes les maps créées à partir de cette musique, ce qui inclut:\nStable: Publiées par publieurs, Accepter la soumission de score\nBeta/Alpha: Maps En Cours De Travail", 
"1039": "Défilez à travers l'éditeur et appuyer pour une deuxième fois sur le bouton de copie pour choisir l'autrepoint de copie.", 
"1040": "Appuyez sur le button [Collez] pour coller des notes copiées.", 
"1041": "Continuer ?", 
"1042": "Chat", 
"1043": "Opération réussie", 
"1044": "Succès de l'importation de la map.", 
"1045": "Échec de l'importation de la map.", 
"1046": "Mettre une clé alternative pour le disque", 
"1047": "Malody supportes les claviers USB pour Android ! Vous n'avez qu'à le brancher.", 
"1048": "Vous avez été mentionné dans un chat publique", 
"1049": "Si Malody vous plaît, veuillez laissez un commentaire sur Malody sur l'AppStore pour aidez les autres joueurs a choisir ce jeu", 
"1051": "OK, faites le maintenant", 
"1052": "Preview du mode ring", 
"1053": "Pour utiliser cet fonctionnalité, veuillez vous assurez que votre appareil supporte le mode de sortie ASIO", 
"1054": "Veuillez redémarrer Malody pour avoir cet effet", 
"1055": "Malody est un cadeau pour toute les personnes qui adorent les jeux de rythme dans le monde entier", 
"1056": "Ce skin coute %d gold", 
"1057": "Changer le décalage par:", 
"1058": "Connection...", 
"1059": "Connecté", 
"1060": "Veuillez selectionner le niveau de difficulté", 
"1061": "Veuillez en premier supprimer votre status de prêt", 
"1062": "Tous les joueurs ne sont pas prêts", 
"1063": "Ajoutée aux téléchargements", 
"1064": "Connecté aux serveur en ligne", 
"1065": "Vous êtes l'hôte de la room maintenant", 
"1066": "OOPS ! Vous n'avez pas assez de gold qui est obligatoire pour télécharger des maps depuis le magasin. Vous pouvez gagner plus de pièces en jouant à des maps ou faire les quêtes quotidiennes.", 
"1067": "Réponse rapide", 
"1068": "Prêt(e) !", 
"1069": "Commençons", 
"1070": "Attendez ! Une minute", 
"1071": "Cette map est trop difficile", 
"1072": "Cette map est trop facile", 
"1073": "Beau match", 
"1074": "Rejouons encore une fois", 
"1075":"We are in Early Access!\nThis means not every functionality of the game may work properly, but please make sure to report what you found annoying or simply wrong to you.\nThanks for playing Malody, and hope you will be back when the game is complete!",
"1100": "Êtes-vous sûr de vous déconnecter ?", 
"1101": "La configuration des touches vient d'être réinitialisées", 
"1102": "Recharger les maps peut prendre quelques instant. Êtes-vous sûr de vouloir continuer ?", 
"1103": "Une réussite vient d'être complétée !", 
"1104": "Une pièce de puzzle vient d'être débloquée !", 
"1105": "Ajoutée à la collection", 
"1106": "Impossible de sauvegarder votre profil", 
"1107": "Êtes-vous sûr de payer 5 000 gold pour un mois de bannière personnalisé ?", 
"1108": "Vous n'avez pas assez de gold", 
"1109": "Êtes-vous sûr de payer 80 000 gold pour changer de pseudo ? (Seulement 1 fois par 180 jours)", 
"1110": "Êtes-vous sûr de quitter la Room ?", 
"1111": "Cette fonctionnalité est sous-développement :)", 
"1112": "Vous n'êtes pas dans une Room", 
"1113": "Payez %d gold pour acheter un emplacement pour une map", 
"1114": "Votre payement a été complété", 
"1115": "Votre payement a été annulé suite à une erreur", 
"1116": "L'e-mail de la réinitialisation de votre mot de passe a bien été envoyé", 
"1117": "Êtes-vous sûr de supprimer tous les scores locaux ?", 
"1118": "Achat Effectué", 
"1119": "Avec le mode Turbo, vous êtes libres de changer de n'importe quel juge, mais votre score ne sera pas publié aux serveurs", 
"1120": "Juge À La Fin", 
"1121": "Doigt Unique", 
"1122": "Miss Tôt", 
"1123": "Désactiver l'option de pause", 
"1124": "Vitesse de la musique", 
"1125": "Scannage des fichiers de maps", 
"1126": "Rechargement des maps complété", 
"1127": "Sauvegardé vers :", 
"1128": "Nouvelle version disponible", 
"1129": "Faire pause et continuer sont désactivés", 
"1130": "Only Players on Malody V can enter 10-player room",
"1131": "Share success",
"1200": "Choisissez une action", 
"1201": "Choisissez le mode de tri", 
"1202": "Êtes-vous sûr de continuer ?", 
"1203": "Choissiez le Mode", 
"1204": "Choisir l'Importation du Contenu", 
"1205": "Choissiez le Style de Map", 
"1206": "Êtes-vous sûr d'annuler la mise en ligne ?", 
"1207": "Selectionnez combien de gold à donner", 
"1208": "Selectionner le nombre de jours en muet", 
"1209": "Shortcut",
"1210": "Upload And Share chart to other players",
"1211": "Are you sure to share the skin to workshop",
"1300": "Chef-d'œuvre", 
"1301": "Très positif", 
"1302": "Positif", 
"1303": "Plutôt positif", 
"1304": "Avis mitigé", 
"1305": "Plutôt négatif", 
"1306": "Négatif", 
"1307": "Très négatif", 
"2000": "Échec de la suppression", 
"2001": "Impossible de supprimer une map SM", 
"2002": "Échec de l'envoi du message", 
"2003": "Votre client est trop ancien, veuillez le mettre à jour depuis l'App Store ou depuis le site officiel de Malody.", 
"2004": "Cette map n'est pas stable", 
"2005": "Échec d'identification: Veuillez ressayer plus tard", 
"2006": "Échec d'identification: Pseudo ou mot de passe incorrect.", 
"2007": "Veuillez selectionner une autre position plus loin que le début", 
"2008": "Veuillez supprimer les notes à la note maintenue", 
"2009": "Impossible de copier les fichiers vers le dossier de maps", 
"2010": "Placer la note maintenue", 
"2011": "Impossible de placer une note à cet endroit", 
"2012": "Nous ne supportons que les format jpg/png", 
"2013": "Vous ne pouvez pas éditer une map qui ne provient pas de Malody", 
"2014": "Nous ne supportons que les format mp3/ogg", 
"2015": "SID incorrect", 
"2016": "CID incorrect", 
"2017": "Vous n'êtes pas le créateur de cette map", 
"2018": "Veuillez regarder la meta de la map.", 
"2019": "Map impossible à soumettre", 
"2020": "Erreur de serveur, veuillez nous contactez.", 
"2021": "Impossible de se connecter au serveurs", 
"2022": "Veuillez annuler la première soumission", 
"2023": "Impossible de détecter le BPM", 
"2024": "Le fichier que vous avez envoyé a déjà été soumit. L'éditeur va l'envoyer avec un autre nom créé automatiquement.", 
"2025": "Veuillez choisir un fichier plus petit que 2Mo", 
"2026": "Votre disque dûr est saturé", 
"2027": "Ce type de fichier n'est pas supporté", 
"2028": "Aucune note sélectionnée", 
"2029": "Plus d'emplacements pour une map!\nChaque map occupe une place jusqu'à qu'elle est approuvée. Essayez de soumettre certaines de vos maps pour qu'elle devienne approuvée ou achetez plus de place pour les maps depuis notre site avec du gold.", 
"2030": "Impossible de faire un don à une map instable", 
"2031": "Vous n'avez pas assez de gold !", 
"2032": "Map impossible à noter", 
"2033": "Deconnecté du serveur", 
"2034": "Impossible de changer le BPM à cette endroit", 
"2035": "BPM incorrect", 
"2036": "Opération Impossible", 
"2037": "L'édition est seulement permise pour les comptes actifs", 
"2038": "La limite de la taille de vidéo en fond d'écran est de 720p@25fps", 
"2039": "Vous ne pouvez pas copier une map qui n'a pas un code source mc", 
"2040": "Vous ne pouvez pas selectionner ce mode pour le skin local", 
"2041": "Vous n'avez pas assez de gold", 
"2042": "Impossible de télécharger ce fichier", 
"2043": "Impossible de rejoindre cette room", 
"2044": "Impossible de créer une nouvelle room", 
"2045": "Veuillez entrer le nom de la room", 
"2046": "Vous êtes déjà dans une room", 
"2047": "Fichier de replay corrompu", 
"2048": "Vous ne pouvez pas jouer une map vide", 
"2049": "Échoué à charger la map", 
"2050": "Veuillez désactiver la calibration dynamique pour publier un score", 
"2052": "La room est complète", 
"2053": "La soumission du score a échoué à cause d'un score décevant", 
"2054": "La fonctionnalité est toujours en cours de test", 
"2055": "Cette map n'éxiste pas dans le magasin", 
"2056": "Veuillez ajouter des notes", 
"2057": "Vous avez déjà 6 maps attendante pour une révision", 
"2058": "Veuillez mettre à jour Malody pour utiliser la fonctionnalité", 
"2059": "Mot de passe incorrect !", 
"2060": "Équilibrez les équipes.", 
"2061": "[Erreur] La map a besoin d'un Titre, Artiste, Version, etc... approprié", 
"2062": "[Erreur] La map contient des notes superposées", 
"2063": "[Suggestion] Ajouter un fond d'écran à votre map", 
"2064": "[Erreur] La map a besoin d'être de 60 secondes et un nombre de notes approprié", 
"2100": "Veuillez selectionner au moins une note glissante", 
"2101": "Veuillez selectionner au moins 3 notes balayantes", 
"2102": "Vérifier que toute l'information est correcte sur la map avant de la publier", 
"2103": "Le titre ou l'artiste contient des caractères non-ASCII", 
"2104": "Échec de connexion: Vous avez été banni !", 
"2105": "Veuillez entrez des informations de base", 
"2106": "Votre mot de passe ne peut pas être plus court que 8 caractères", 
"2107": "Le mot passe n'est pas indentique", 
"2108": "Ce pseudo est déjà utilisé", 
"2109": "Cette email est déjà utilisé", 
"2110": "Seulement a-z 0-9 et []()-_@ est autorisé dans les pseudos et peuvent être 3 caractères ou plus long", 
"2111": "E-mail invalide", 
"2112": "Échec de la mise en ligne", 
"2113": "Échec de la conversion d'audio", 
"2114": "Veuillez selectionner une map", 
"2115": "Format de date incorrect", 
"2116": "Vous avez changez de pseudo il y a 180 jours", 
"2117": "Échec de la mise en ligne de plus de maps dû à une certaine raison", 
"2118": "Veuillez selectionner le server du magasin depuis les paramètres", 
"2119": "Vous ne pouvez pas faire un don à vous-même", 
"2120": "Veuillez soumettre le score avant le don", 
"2121": "Vous avez fait un don de 1 000 gold à la map", 
"2122": "Hôte invalide ou API incompatible", 
"2123": "The server is about to restart, multiplayer has been disabled",
"2124": "Can not retrive file from server",
"2125": "Can not connect to Steam",
"2126": "You have no permission",
"2127": "Please select one skin",
"2128": "Can not find proper info for the skin",
"3000": "Les chagements seront sauvegardé automatiquement avant de jouer à la map", 
"3001": "Voulez-vous sauvegarder ?", 
"3002": "Il est irreversible de supprimer toutes les notes", 
"3003": "Paramètres & Quitter", 
"3004": "Titre", 
"3005": "Artiste", 
"3006": "Fichier audio", 
"3007": "Couverture d'album/musique", 
"3008": "Image de fond d'écran", 
"3009": "BPM", 
"3010": "Décalage", 
"3011": "Sauvegarder", 
"3012": "Information", 
"3013": "Mettre en ligne", 
"3014": "Supprimer toutes les notes", 
"3015": "Detecter automatiquement", 
"3016": "Défiler jusqu'où vous voulez copier", 
"3017": "Jouer à partir de la position actuelle", 
"3018": "Jouer à partir du debut", 
"3020": "Mise en ligne effectuée", 
"3021": "Sauvegarde effectuée", 
"3022": "Mise en ligne annulée", 
"3023": "Êtes-vous sûr ?", 
"3024": "Detection automatique du BPM effectuée", 
"3025": "Appliquer Les Résultats", 
"3026": "Incertitude:", 
"3027": "On vous suggère de laissez l'editeur utiliser des valeurs recommandées pour le décalage et le BPM. Alternativement, vous pouvez utiliser vos propres valeurs. Menu -> Meta", 
"3028": "Comment stabiliser ma map ?", 
"3029": "Afficher la page web de la map", 
"3030": "Colonne", 
"3031": "Quitter et sauvegarder", 
"3032": "Quitter sans sauvegarder", 
"3033": "Acheter plus d'emplacements pour les maps.", 
"3034": "Emplacements actuels:", 
"3035": "Diviser", 
"3036": "Vitesse", 
"3037": "Options", 
"3038": "Liste de fichiers", 
"3039": "Succès de l'exportation. Vérifiez le dossier <export>", 
"3040": "Échec de l'exportation", 
"3041": "Exporter les fichier de la map", 
"3042": "Exporté à <Documents/export>", 
"3043": "Sauvegarde automatique à chaque minute", 
"3044": "Bloquer les notes ?", 
"3045": "Vitesse des notes", 
"3046": "Appuyez sur le même bouton pour choisir la fin", 
"3047": "Fin de la ligne", 
"3048": "POW ! Un MARLO sauvage apparait", 
"3049": "Commencement de la ligne", 
"3050": "Appliquer à partir du beat selectionné", 
"3051": "Nombre de coups", 
"3052": "Soumission", 
"3053": "Soumettre une map pour révision", 
"3054": "En attendant d'une révision", 
"3055": "Révision en cours", 
"3056": "Rejetée", 
"3057": "Aucun record", 
"3058": "Marquer comme revue", 
"3059": "Marquer comme Rejeté", 
"3060": "Annuler la soumission", 
"3061": "Contacter le publieur", 
"3062": "Contacter le créateur", 
"3063": "Télécharger la map", 
"3064": "Sélectionnez une zone de copie", 
"3065": "Coller", 
"3066": "Couper", 
"3067": "Retourner les notes horizontalement", 
"3068": "Paramètres de la grille", 
"3069": "Lignes de la grille", 
"3070": "Alignement de la grille", 
"3071": "Modifier la note glissante", 
"3072": "Note glissante en une note balayante", 
"3073": "Note balayante en une note glissante", 
"3074": "Temps d'aperçu", 
"3075": "Titre Original", 
"3076": "Artist Original", 
"3077": "Mesure Seule", 
"3078": "Créateur", 
"3079": "Mettre en ligne", 
"3080": "Jouer", 
"3081": "Annuler", 
"3082": "Rétablir", 
"3083": "Détection du BPM", 
"3084": "Raccourcis Clavier Publique", 
"3085": "Raccourcis Clavier Actuel", 
"3086": "Ajouter", 
"3087": "Supprimer", 
"3088": "Appliquer le résultat de la détection du BPM au point de timing ?", 
"3089": "Division de Grille Complète", 
"3090": "Faire un Avis depuis une IA", 
"3091": "Taille de la Grille", 
"3092": "Plus d'Actions", 
"3093": "Montrer les Statistiques", 
"3094": "Note Thickness",
"3095": "Scroll Multiplier",
"3096": "Note Align to Grid",
"3097": "Peer Review",
"3098": "Related Notes",
"3099": "Related Time",
"3100": "Reply",
"3101": "Issue Label",
"3102": "Open",
"3103": "Closed",
"3104": "Reopen",
"3105": "Invalid",
"3500": "Sauvegarder", 
"3501": "Tester", 
"3502": "",
"3503": "Volume+", 
"3504": "Volume-", 
"3505": "Volume d'Effets+", 
"3506": "Volume d'Effets-", 
"3507": "Vitesse+", 
"3508": "Vitesse-", 
"3509": "Jouer/Pause", 
"3510": "Diviser+", 
"3511": "Diviser-", 
"3512": "Copier", 
"3513": "Coller", 
"3514": "Outil de Note", 
"3515": "Outil de Note Maintenue", 
"3516": "Outil de Sélection", 
"3517": "Outil de Suppression", 
"3518": "Annuler", 
"3519": "Rétablir", 
"3520": "Inverser les Notes", 
"3521": "Ouvrir la Liste de BPM", 
"3522": "Ouvrir les Informations", 
"3523": "Ouvrir la Mise en Ligne", 
"3524": "Outil de Balayage", 
"3525": "Outil de Glissement", 
"3526": "Séparer", 
"3527": "Fusionner", 
"3528": "Outil de Flick", 
"3529": "Changer la Taille", 
"3530": "Ajouter Don", 
"3531": "Ajouter Ka", 
"3532": "Ajouter un Roulement", 
"3533": "Ajouter un Ballon", 
"3534": "Ajouter un Espace", 
"3535": "Déplacer à Gauche", 
"3536": "Déplacer à Droite", 
"3537": "Couper", 
"3538": "Supprimer la Sélection", 
"3539": "Scale+",
"3540": "Scale-",
"3541": "Add Issue",
"3600": "Retour", 
"3601": "Sélectionner Au-Dessus", 
"3602": "Sélectionner En Dessous", 
"3603": "Confirmer", 
"3604": "Mettre en arrêt/continuer le jeu", 
"3605": "Jouer la Prochaine", 
"3606": "Jouer la Dernière", 
"3607": "Rafraichir les maps", 
"3608": "Capture d'Écran", 
"3609": "Quick Retry",
"4000": "Inconnu", 
"4001": "Asie", 
"4002": "Afrique", 
"4003": "Amérique du Nord", 
"4004": "Amérique du Sud", 
"4005": "Europe", 
"4006":"Australie",
"4007":"Japon",
"4008":"Chine",
"4009":"États-Unis",
"4010":"Taiwan (Chine)",
"4011":"Corée",
"4012":"Allemagne",
"4013":"Russie",
"4014":"Pologne",
"4015":"France",
"4016":"Hong Kong (Chine)",
"4017":"Canada",
"4018":"Chili",
"4019":"Indonésie",
"4020":"Brésil",
"4021":"Thaïlande",
"4022":"Italie",
"4023":"Royaume-Uni",
"4024":"Argentine",
"4025":"Philippines",
"4026":"Finlande",
"4027":"Pays-Bas",
"4028":"Malaisie",
"4029":"Espagne",
"4030":"Méxique",
"4031":"Suède",
"4032":"Singapoure",
"4033":"Nouvelle-Zélande",
"4034":"Vietnam",
"4035":"Belgique",
"4036":"Suisse",
"4037":"Autriche",
"4038":"Bulgarie",
"4039": "Macao (Chine)",
"5000": "Bienvenue dans Malody V, voulez vous voir un tutoriel ?",
"5001": "Import local charts/skins/music etc.",
"5002": "Filter song list by favourite",
"5003": "Filter song list by play mode",
"5004": "Multiplayer lobby, Dan room",
"5005": "View chart/skin shared by other players",
"5006": "Daily quests",
"5007": "News from server",
"5008": "View friends or search other players",
"5009": "Chat with other online players",
"5010": "View download records, music controller",
"5011": "Add selected chart to collection",
"5012": "Change play difficulty/mods",
"5013": "View chart comments, global ranking",
"5014": "Change judge difficulty, custom judgement",
"5015": "Change note speed",
"5016": "Manage/Share chart",
"5017": "More options like offset and graphics are available when the game is paused",
"5018": "Donate gold to chart creator",
"5019": "Recommend/Not Recommend the chart to other players",
"5020": "Share chart replay",
"5021": "View technical statistics"
}
