{
"0": "音频",
"1": "系统",
"2": "图形",
"3": "输入",
"4": "其他",
"5": "音乐音量:%d",
"6": "效果音量:%d",
"7": "分辨率",
"8": "全屏",
"9": "不限帧数",
"10": "显示FPS",
"12": "运行偏移向导",
"13": "打击偏移:%+d",
"14": "图形偏移:%+d",
"15": "Key模式轨道宽度:",
"16": "轨道宽固定",
"17": "面板宽固定",
"18": "DJ模式盘轨道居左",
"19": "隐藏谱面动画",
"20": "隐藏虚拟键",
"21": "使用全宽键",
"22": "重置键绑定",
"23": "重置所有谱面",
"24": "访问官网",
"25": "语言",
"26": "系统音量:%d",
"27": "Key模式轨道位置:%d%%",
"28": "检查更新",
"29": "使用倾斜轨道",
"30": "轨道斜度:%d",
"31": "启用Android键盘",
"32": "开启全部图形效果",
"33": "游戏中显示偏差表",
"34": "开启Key音",
"35": "自定义Key音类型",
"36": "退出帐号",
"37": "使用皮肤:",
"38": "使用竖屏模式",
"39": "启用触屏支持",
"41": "隐藏轨道分割线",
"42": "音频性能:%d",
"43": "帮助",
"44": "实验特性",
"45": "开启新Key音引擎",
"46": "意见&错误报告",
"47": "预览key模式界面",
"48": "联网",
"49": "服务器",
"50": "音乐音量",
"51": "效果音量",
"52": "打击偏移",
"53": "图形偏移",
"54": "轨道斜度",
"55": "自定义谱面加载路径:",
"56": "旋转游玩区域",
"57": "启用ASIO",
"58": "显示原始标题",
"59": "禁止Key编辑器滚动",
"60": "版本信息",
"61": "平台",
"62": "显示网格歌曲列表",
"63": "使用OpenSL",
"64": "管理皮肤",
"65": "翻转滚轮",
"66": "开启末尾Key音",
"67": "选择一个来配置按键",
"68": "设置按键:",
"69": "谱面服务器主机",
"70": "锁定游玩帧率",
"71": "刷新率",
"72": "显示效果",
"73": "场景缩放",
"74": "3D运动补偿",
"75": "3D厚度补偿",
"76": "挡板位置",
"77": "跳过Key音谱预览",
"78": "Hold调整",
"79": "停止在按住点",
"80": "终止在判定点",
"81": "吸附到判定点",
"82": "打击距离",
"83": "备选",
"100": "删除歌曲",
"101": "打开歌曲目录",
"102": "删除谱面",
"103": "清除本地成绩",
"104": "在商店中查看",
"105": "谱面未上架",
"106": "选择效果",
"107": "选择模式",
"108": "点击来搜索",
"109": "编辑谱面",
"110": "为歌曲创建谱面",
"111": "获得更多谱面",
"112": "创作新谱面",
"113": "返回",
"114": "排名",
"115": "选项",
"116": "本地",
"117": "进行中",
"118": "完成",
"119": "暂停",
"120": "确定",
"121": "难度",
"122": "显示所有谱面",
"123": "在网站中查看",
"124": "不可下载",
"125": "未知",
"126": "复制并编辑",
"127": "本地排名",
"128": "在线排名",
"129": "最佳成绩",
"130": "音符速度",
"131": "下载列表",
"132": "搜索",
"133": "谱面导入指南",
"134": "开始转换音源为OGG格式",
"135": "确定删除谱面？",
"136": "确定删除歌曲？",
"137": "导入谱面",
"138": "下载成功",
"139": "分享谱面到...",
"140": "创建新收藏夹",
"141": "确定删除此收藏夹？",
"142": "已添加",
"143": "移除",
"144": "全部谱面",
"145": "输入关键词进行搜索",
"146": "消息列表",
"147": "目前没有新消息",
"148": "包含的内容",
"149": "包含的谱面",
"150": "删除",
"151": "分享",
"170": "好友列表",
"171": "搜索玩家",
"172": "聊天",
"173": "邀请到房间",
"174": "导入音频创建新谱面",
"175": "导入皮肤",
"176": "评论",
"177": "全球排名",
"178": "歌曲",
"179": "观看回放",
"180": "周常",
"181": "禁言",
"182": "导出为曲包",
"183": "导出为谱包",
"200": "观看Ma娘的示范演奏",
"201": "开启所有音符随机摆放效果",
"202": "开启音符左右对换效果",
"203": "下落速度不与BPM关联",
"204": "加速20%",
"205": "加速50%",
"206": "消失中的音符",
"207": "使用\"原始\"的判定和计分",
"208": "减速20%",
"209": "不作死就不会死",
"210": "房间内所有玩家使用一致的判定",
"211": "开启音符上下颠倒效果",
"250": "难度调整",
"251": "特殊玩法",
"252": "辅助",
"253": "重置",
"254": "分数加成",
"255": "此调整已被禁用",
"300": "设置键位",
"301": "按[Esc]清除所有绑定",
"302": "试试这个延迟: %d",
"303": "确认退出游玩?",
"304": "退出到当前位置",
"305": "总分",
"306": "连击",
"307": "准确度",
"308": "谱面偏移",
"309": "背景暗度",
"310": "结束",
  "311": "观看玩家直播",
  "312": "开启游玩直播",
  "313": "主播未开播",
"400": "点击登录",
"401": "登录",
"402": "信息",
"403": "注册",
"404": "用户名",
"405": "密码",
"406": "忘记密码?",
"500": "请将谱面放入<beatmap>目录, 按F5刷新",
"501": "请将谱面放入<sdcard/data/malody/beatmap>目录, 点击刷新",
"502": "请连接iTunes导入谱面, 点击刷新",
"503": "请将歌曲包(mcz或zip后缀)拖入Malody窗口来加载",
"504": "请将皮肤打包为msz(zip改后缀名), 放到谱面目录来加载",
"505": "请将custom.wav文件放入<skin>目录",
"506": "音频偏差修正",
"507": "当音符和红色横线重合时, 点击屏幕或敲击F",
"600": "全部",
"601": "标题",
"602": "长度",
"604": "添加时间",
"605": "已上架",
"606": "已初审",
"607": "草稿",
"608": "未收录",
"609": "有更新",
"650": "升序",
"651": "降序",
"700": "打赏",
"701": "如果喜欢这个谱面, 请用50金币支持一下",
"702": "取得新排名: #%d",
"703": "在线最佳成绩%d (+%d)",
"704": "感谢打赏",
"705": "重试",
"706": "上传中",
"707": "谱面未上架",
"708": "上传失败",
"709": "推荐",
"710": "不推荐",
"711": "发表评论",
"712": "将谱面推荐给其他玩家",
"713": "谱面质量不高需要修改",
"714": "留下对此谱面的点评",
"715": "点评",
"716": "导出到:",
"717": "取得新全球排名:",
"718": "回放",
"719": "全球排名",
"720": "打赏50金币",
"721": "打赏500金币",
"722": "取消推荐",
"723": "取消不推荐",
"724": "退出",
"725": "继续",
"726": "比赛排名",
"727": "成绩已上传",
"800": "登录后可以和全球其他玩家一起聊天交流",
"801": "你处在公共聊天频道, 请使用英语",
"802": "添加好友",
"803": "好友",
"804": "双向好友",
"805": "成就",
"806": "拼图",
"807": "退出帐号",
"808": "频道",
"809": "创建房间",
"810": "房间列表",
"811": "房间名",
"812": "玩家数",
"813": "等待中",
"814": "游玩中",
"815": "只显示等待房间",
"816": "准备",
"817": "取消准备",
"818": "开始",
"819": "移除该玩家",
"820": "设为房主",
"821": "得分模式",
"822": "以最高分取胜",
"823": "以最高连击数取胜",
"824": "以最高准确率取胜",
"825": "隐藏音符",
"826": "关闭音效",
"827": "组队模式",
"828": "个人模式",
"829": "红蓝对抗",
"830": "调整",
"831": "最后游玩",
"832": "%d天前",
"833": "%d小时前",
"834": "%d分钟前",
"835": "添加时间",
"836": "最后游玩时间",
"837": "未选择谱面",
"838": "加入",
"839": "%d连胜",
"840": "许久以前",
"841": "显示全部投稿",
"842": "显示审核中投稿",
"843": "私人房间",
"844": "请输入房间密码",
"845": "游玩时长",
"846": "谱面被游玩",
"847": "最高排名",
"848": "创作谱面",
"849": "成就",
"850": "拼图",
"851": "个人简介",
"852": "金币",
"853": "音符",
"854": "编辑资料",
"855": "创建或选择一个房间开始游戏",
"856": "开放房间",
"857": "性别",
"858": "出生日期",
"859": "所属地区",
"860": "简介内容",
"861": "男",
"862": "女",
"863": "创建或者选择一个房间",
"864": "选择歌曲",
"865": "选择谱面",
"866": "10人房",
  "867": "段位记录",
"900": "在线游玩",
"901": "离线游玩",
"902": "偏移调节向导",
"903": "点击\"开始\", 你将听到一段节拍, 跟随节奏点击屏幕中央或按F键",
"904": "直到数字稳定为止, 如需要打击音做参照, 请开启音效",
"905": "开始",
"906": "重置",
"907": "显示音符",
"908": "开启音效",
"909": "点击\"开始\", 你将听到一段节拍, 跟随节奏按F键",
"910": "设置",
"911": "聊天室",
"912": "网络",
"913": "调整",
"914": "大厅",
"915": "房间",
"916": "玩家信息",
"917": "成绩",
"918": "皮肤",
"919": "商店",
"920": "任务",
"921": "谱面",
"922": "歌曲",
"923": "新闻",
"924": "投稿",
"925": "收藏夹",
"926": "收藏编辑",
"927": "道具商店",
"1000": "请登录",
"1001": "请稍候",
"1002": "请按节奏声音按F或触摸屏幕, 通过调节延迟让音符和红线重合",
"1003": "你的成绩似乎受到了不正确延迟的影响",
"1004": "需要自动校准吗?",
"1005": "你没有所需的谱面",
"1006": "动态延迟校准",
"1007": "在游玩过程中动态调整延迟, 当此选项开启时, 游玩成绩将无效",
"1008": "使用新key音引擎游玩key音谱面可获得最佳体验",
"1009": "Malody已更新, 点击查看新功能",
"1010": "欢迎进入Malody Store, store中提供由玩家创作并审核通过的最新80个谱面, 需要更多谱面以及想要提交自己创作的谱面, 可以访问官网http://m.mugzone.net获得更多信息",
"1011": "双击来游玩这个谱面",
"1012": "连接超时",
"1013": "如果你是第一次玩Malody, 建议你使用向导校准延迟以获得最佳游戏体验, 向导会重置你之前设定的延迟, 是否使用向导?",
"1014": "默认",
"1015": "按[Space]查看结果",
"1016": "点击查看结果",
"1017": "游客",
"1018": "确定退出Malody?",
"1019": "服务器错误",
"1020": "确认",
"1021": "取消",
"1022": "应用给全局偏移",
"1023": "应用给谱面偏移",
"1024": "此歌曲无法读取, 是否重试?",
"1025": "重新读取",
"1026": "删除歌曲",
"1027": "是否要使用这个音乐创建谱面?",
"1028": "是否使用这个图片作为背景?",
"1029": "这个歌曲没有谱面, 是否创建谱面?",
"1030": "是否播放这个Replay?",
"1031": "你想要进行什么操作",
"1032": "导入皮肤成功",
"1033": "导入皮肤失败",
"1034": "确认删除这个皮肤吗?",
"1035": "选择谱面玩法类型",
"1036": "减少轨道数量会导致多余轨道上的音符被删除, 是否继续?",
"1037": "目前只支持查看第三方来源的谱面, 无法编辑和保存",
"1038": "即将显示该歌曲下所有谱面, 包括:\nStable: 经过审核的高质量谱面, 可以上传成绩\nBeta/Alpha: 编写中的谱面, 无法上传成绩",
"1039": "滚动时间轴, 再点击一次[复制]按钮来选择复制结束位置",
"1040": "点击[粘贴]按钮来粘贴音符",
"1041": "点击以继续",
"1042": "点击发言",
"1043": "操作成功",
"1044": "谱面导入成功",
"1045": "谱面导入失败",
"1046": "为盘轨道设置副键",
"1047": "Malody支持Android OTG键盘,请确认设备已连接键盘",
"1048": "公频中有人提到了你",
"1049": "开发者希望你通过Malody获得快乐，如果你觉得Malody是个不错的游戏，请在AppStore中为Malody留下评论帮助其他玩家挑选游戏",
"1051": "好的，现在评价",
"1052": "Ring演示模式",
"1053": "请确保电脑支持ASIO输出模式再开启此选项",
"1054": "请重新启动Malody以使设置生效",
"1055": "Malody是献给世界上所有音乐游戏爱好者的礼物",
"1056": "购买此皮肤将消费%d金币",
"1057": "偏差修正数:",
"1058": "正在登录",
"1059": "已登录",
"1060": "请选择游戏难度",
"1061": "请先取消准备状态",
"1062": "有玩家未准备好",
"1063": "已加入下载队列",
"1064": "已连上在线服务器",
"1065": "你已成为房主",
"1066": "Oops, 你的金币用完了。在Malody下载谱面需要金币，可以通过游玩谱面，做日常任务等方式获得金币。",
"1067": "快捷回复",
"1068": "准备！",
"1069": "开始吧",
"1070": "请等我一分钟",
"1071": "这谱太难了",
"1072": "这谱随手全连",
"1073": "打的不错",
"1074": "再来一把",
"1075": "欢迎参与Malody抢鲜体验！\n目前我们游戏功能还不完善，各方面还需要继续开发或者调整。欢迎反馈或者催更，我们会持续改进完成这个游戏，感谢一直以来的支持！",
"1100": "是否确定登出?",
"1101": "按键设置已重置",
"1102": "重新加载谱面可能会花些时间，是否继续?",
"1103": "成就解锁!",
"1104": "拼图解锁!",
"1105": "已添加到收藏夹",
"1106": "目前无法保存个人资料",
"1107": "更换背景图需要花费5000金币(维持一个月)，是否继续?",
"1108": "你没有足够的金币",
"1109": "改一次用户名需要花费80,000金币(180天只能改一次)，是否继续？",
"1110": "确定要退出当前房间吗?",
"1111": "前面的区域，以后再来探索吧",
"1112": "你不在任何房间中",
"1113": "支付%d金币购买一个上传空间",
"1114": "购买成功",
"1115": "由于系统原因，购买失败",
"1116": "密码重置邮件已发送到电子邮箱",
"1117": "再次确认是否清空本地成绩?",
"1118": "购买成功",
"1119": "在野性解放模式下，你可以自由的调节各项判定规则，但成绩不会提交到服务器",
"1120": "开启尾判",
"1121": "手指追踪",
"1122": "忽略打早Miss",
"1123": "禁止暂停",
"1124": "音乐速度",
"1125": "正在扫描谱面目录",
"1126": "谱面列表已刷新",
"1127": "保存至:",
"1128": "新版本可用",
"1129": "暂停并继续已被禁止",
"1130": "只有使用Malody V客户端玩家才可进入10人房",
"1200": "选择操作",
"1201": "选择排序方式",
"1202": "再次确认执行",
"1203": "选择模式",
"1204": "选择导入内容",
"1205": "选择谱面风格",
"1206": "确认取消上传?",
"1207": "选择打赏金额",
"1208": "设置禁言天数",
"1209": "快捷键",
"1210": "上传并分享谱面给其他玩家",
  "1211": "确定要分享皮肤到创意工坊?",
"1300": "杰作",
"1301": "特别好评",
"1302": "好评",
"1303": "多半好评",
"1304": "褒贬不一",
"1305": "多半差评",
"1306": "差评",
"1307": "差评如潮",
"2000": "删除失败",
"2001": "无法删除SM格式的谱面",
"2002": "发送消息失败",
"2003": "客户端版本过低, 请升级到最新版",
"2004": "谱面未上架",
"2005": "登录失败: 请稍后再试",
"2006": "登录失败: 用户名或密码错误",
"2007": "请选择比起点更晚的位置",
"2008": "Hold位置上已有其他音符",
"2009": "复制文件到编辑空间失败",
"2010": "请先放置Hold",
"2011": "不能在此放置音符",
"2012": "只支持jpg/png格式的图片",
"2013": "目前只能编辑Pad/Key/Catch谱面, 后续将开放其他模式",
"2014": "只支持mp3/ogg格式的音频",
"2015": "sid对应的歌曲不存在",
"2016": "cid对应的谱面不存在",
"2017": "你不是谱面作者",
"2018": "歌曲信息有误,请核对",
"2019": "无法更新已上架谱面",
"2020": "服务器错误,请联系我们",
"2021": "无法上传到服务器",
"2022": "请先取消前一个上传任务",
"2023": "自动测量BPM失败",
"2024": "当前所上传的文件在服务器端已存在，编辑器会将此文件重命名后再尝试上传",
"2025": "请使用小于2Mb的图片文件",
"2026": "本地磁盘已满或不可写入",
"2027": "无法导入这种格式的文件",
"2028": "没有选中音符",
"2029": "所有上传空间被占用!\n每上传一个谱面将占用一个上传空间, 上架谱面不占用上传空间, 可以选择将已上传的谱面上架, 或购买更多上传空间。",
"2030": "无法打赏非上架谱面",
"2031": "没有足够的金币来打赏",
"2032": "请先提交成绩再评价谱面",
"2033": "与服务器失去连接",
"2034": "无法在此添加BPM",
"2035": "BPM数值不正确",
"2036": "无法进行这项操作",
"2037": "活跃帐号才可进行编辑",
"2038": "背景视频尺寸限制是720p@25fps",
"2039": "无法复制非mc格式谱面",
"2040": "无法过滤本地皮肤",
"2041": "没有足够金币",
"2042": "无法下载此文件",
"2043": "无法加入房间",
"2044": "无法创建房间",
"2045": "请输入房间名",
"2046": "已经在房间中",
"2047": "重放文件已损坏",
"2048": "无法游玩空谱面",
"2049": "谱面加载失败",
"2050": "关闭动态校准才可上传成绩",
"2052": "房间已满",
"2053": "成绩过低，无法上传",
"2054": "此功能尚在内测",
"2055": "谱面未收录",
"2056": "请添加note",
"2057": "你已有6份谱面待审核中",
"2058": "请升级到最新版本以使用此功能",
"2059": "密码错误!",
"2060": "不能有无人队伍",
"2061": "[问题] 需要有正确填写的Title,Artist,Version等信息",
"2062": "[问题] note密度过高或note重叠",
"2063": "[更好] 给谱面添加一张背景图",
"2064": "[问题] 谱面需要有至少60秒的可游玩时长和相应的物量",
"2100": "请先选择一个Slide",
"2101": "请选择至少3个Wipe",
"2102": "请修改谱面问题再投稿",
"2103": "标题或艺术家包含非英文字符",
"2104": "帐号被封",
"2105": "请填下基本信息",
"2106": "密码不可以小于8位",
"2107": "密码不匹配",
"2108": "用户名已被注册",
"2109": "邮箱已被注册",
"2110": "用户名只可使用a-z 0-9 and []()-_@等字符，且必须大于3位",
"2111": "邮箱地址不合法",
"2112": "上传失败",
"2113": "音频转码失败",
"2114": "请选择一个谱面",
"2115": "日期格式错误",
"2116": "在180天内已改过用户名",
"2117": "由于某些原因，暂时无法上传更多谱面",
"2118": "请先设置谱面服务器地址",
"2119": "无法打赏给自己",
"2120": "打赏需先提交成绩",
"2121": "你已在此谱面上打赏1000金币",
"2122": "Host无法连通或API版本不兼容",
"2123": "服务器即将重启，多人游戏已被暂停",
"2124": "服务器上找不到对应文件",
"2125": "无法与Steam建立连接",
"2126": "没有权限",
  "2127": "需要先选择一个皮肤",
  "2128": "找不到正确的皮肤信息",
"3000": "进入测试前改动会自动保存",
"3001": "退出前要保存改动吗?",
"3002": "清除音符操作是不可逆的, 是否继续?",
"3003": "设置和退出",
"3004": "歌曲名",
"3005": "艺术家",
"3006": "音频文件",
"3007": "歌曲封面",
"3008": "背景图",
"3009": "BPM",
"3010": "偏移",
"3011": "保存",
"3012": "谱面信息",
"3013": "上传到服务器",
"3014": "清除所有note",
"3015": "自动测量",
"3016": "请滚动时间轴,点击设置结束位置",
"3017": "从当前位置测试",
"3018": "从头开始测试",
"3019": "获得谱面ID",
"3020": "上传成功",
"3021": "保存成功",
"3022": "已取消上传",
"3023": "是否取消上传?",
"3024": "自动测量BPM完成",
"3025": "应用自动测量结果",
"3026": "不稳定度: ",
"3027": "这是该谱面的首次编辑，是否需要编辑器自动测定音乐的BPM与延迟？如跳过，也可在之后的编辑中于Menu中重新启用该功能，或是通过Menu的meta项目手动填写BPM",
"3028": "如何上架谱面",
"3029": "打开在线谱面页",
"3030": "轨道数量",
"3031": "保存并退出",
"3032": "不保存退出",
"3033": "购买上传空间",
"3034": "当前总共上传空间:",
"3035": "节拍",
"3036": "速度",
"3037": "开关",
"3038": "文件列表",
"3039": "已成功导出至<export>目录",
"3040": "导出失败,请检查数据",
"3041": "导出谱面",
"3042": "已成功导出至<Documents/export>目录",
"3043": "每分钟自动保存",
"3044": "锁定音符",
"3045": "下落速度",
"3046": "再次按下按键设置音符结束位置",
"3047": "音乐结束，大功告成！",
"3048": "嘭！一只野生的Marlo娘出现了！",
"3049": "小节线开始于",
"3050": "设置为当前位置",
"3051": "击打数",
"3052": "谱面提交",
"3053": "提交谱面以供审核",
"3054": "等待审核",
"3055": "审核中",
"3056": "被打回",
"3057": "未投稿",
"3058": "标记为审核中",
"3059": "标记为已拒绝",
"3060": "取消投稿",
"3061": "联系审核者",
"3062": "联系作者",
"3063": "下载此谱面",
"3064": "选择复制",
"3065": "粘贴",
"3066": "剪切",
"3067": "左右翻转",
"3068": "栅格设置",
"3069": "栅格密度",
"3070": "栅格对齐",
"3071": "修改Slide",
"3072": "Slide转Wipe",
"3073": "Wipe转Slide",
"3074": "预览时间",
"3075": "标题原文",
"3076": "艺术家原文",
"3077": "单步输入",
"3078": "创作者",
"3079": "上传",
"3080": "测试游玩",
"3081": "撤销",
"3082": "重做",
"3083": "BPM检测",
"3084": "公共快捷键",
"3085": "当前模式快捷键",
"3086": "添加",
"3087": "移除",
"3088": "是否将BPM检测结果应用到第一个时间记录?",
"3089": "完整Divide分度",
"3090": "进行AI审核",
"3091": "栅格缩放",
"3092": "更多功能",
"3093": "显示统计",
"3094": "Note厚度",
"3095": "滚动系数",
"3096": "Note对齐栅格",
"3097": "同行评审",
"3098": "关联Note",
"3099": "关联时刻",
"3100": "回复",
"3101": "评审标签",
"3102": "待回复",
"3103": "已关闭",
"3104": "重新打开",
"3105": "无效问题",
"3500": "保存",
"3501": "试玩",
"3503": "音乐音量+",
"3504": "音乐音量-",
"3505": "Key音音量+",
"3506": "Key音音量-",
"3507": "播放速度+",
"3508": "播放速度-",
"3509": "播放/暂停",
"3510": "改变节拍+",
"3511": "改变节拍-",
"3512": "复制",
"3513": "粘贴",
"3514": "Note工具",
"3515": "Hold工具",
"3516": "选择工具",
"3517": "删除工具",
"3518": "撤销",
"3519": "重做",
"3520": "翻转Note",
"3521": "打开Bpm列表",
"3522": "打开信息面板",
"3523": "打开上传面板",
"3524": "Wipe工具",
"3525": "Slide工具",
"3526": "分割",
"3527": "合并",
"3528": "Flick工具",
"3529": "改变大小",
"3530": "添加Don",
"3531": "添加Ka",
"3532": "添加Roll",
"3533": "添加Balloon",
"3534": "添加空白",
"3535": "向左一格",
"3536": "向右一格",
"3537": "剪切",
"3538": "删除所选",
"3539": "缩放+",
"3540": "缩放-",
  "3541": "提出问题",
"3600": "返回",
"3601": "选择上移",
"3602": "选择下移",
"3603": "确认",
"3604": "播放暂停",
"3605": "播放下一首",
"3606": "播放上一首",
"3607": "刷新谱面",
"3608": "截屏",
"3609": "快速重开",
  "5000": "欢迎来到Malody V，想要看看新手引导吗？",
  "5001": "导入谱面/皮肤，添加音乐等",
  "5002": "按收藏夹过滤歌曲列表",
  "5003": "按游玩模式过滤歌曲列表",
  "5004": "多人游戏大厅，段位考试房间",
  "5005": "查看其他玩家分享的谱面，皮肤",
  "5006": "每日任务",
  "5007": "最新消息，新闻",
  "5008": "查看好友和搜索其他玩家",
  "5009": "和其他在线玩家聊天",
  "5010": "查看下载进度，控制音乐播放",
  "5011": "将当前谱面添加到收藏夹",
  "5012": "设置游戏难度调整",
  "5013": "查看谱面评论，全球排行榜",
  "5014": "改变判定难度，自定义玩法",
  "5015": "改变音符速度",
  "5016": "管理谱面，分享",
  "5017": "游玩暂停时，可以更改更多游玩设定，调节偏移，图形等",
  "5018": "向谱面作者打赏金币",
  "5019": "向其他玩家推荐/差评当前谱面",
  "5020": "分享谱面重放",
  "5021": "查看谱面技术统计"
}
